<?xml version="1.0" encoding="UTF-8" standalone="no"?>
<!-- Created with Inkscape (http://www.inkscape.org/) -->

<svg
   xmlns:dc="http://purl.org/dc/elements/1.1/"
   xmlns:cc="http://creativecommons.org/ns#"
   xmlns:rdf="http://www.w3.org/1999/02/22-rdf-syntax-ns#"
   xmlns:svg="http://www.w3.org/2000/svg"
   xmlns="http://www.w3.org/2000/svg"
   xmlns:sodipodi="http://sodipodi.sourceforge.net/DTD/sodipodi-0.dtd"
   xmlns:inkscape="http://www.inkscape.org/namespaces/inkscape"
   version="1.0"
   width="768"
   height="1024"
   id="svg5496"
   sodipodi:version="0.32"
   inkscape:version="0.48.1 r9760"
   sodipodi:docname="0.svg"
   inkscape:output_extension="org.inkscape.output.svg.inkscape">
  <metadata
     id="metadata5594">
    <rdf:RDF>
      <cc:Work
         rdf:about="">
        <dc:format>image/svg+xml</dc:format>
        <dc:type
           rdf:resource="http://purl.org/dc/dcmitype/StillImage" />
        <dc:title></dc:title>
      </cc:Work>
    </rdf:RDF>
  </metadata>
  <sodipodi:namedview
     inkscape:window-height="1027"
     inkscape:window-width="1856"
     inkscape:pageshadow="2"
     inkscape:pageopacity="0.0"
     borderopacity="1.0"
     bordercolor="#666666"
     pagecolor="#ffffff"
     id="base"
     showgrid="false"
     showguides="true"
     inkscape:guide-bbox="true"
     inkscape:zoom="0.74854894"
     inkscape:cx="180.8362"
     inkscape:cy="534.66598"
     inkscape:window-x="64"
     inkscape:window-y="0"
     inkscape:current-layer="svg5496"
     inkscape:window-maximized="1">
    <sodipodi:guide
       orientation="0,1"
       position="0,205"
       id="guide5596" />
    <sodipodi:guide
       position="0,342"
       orientation="0,1"
       id="guide2984" />
    <sodipodi:guide
       position="718,0"
       orientation="1,0"
       id="guide2986" />
    <sodipodi:guide
       position="0,887"
       orientation="0,1"
       id="guide2988" />
    <sodipodi:guide
       position="0,1024"
       orientation="1024,0"
       id="guide2990" />
    <sodipodi:guide
       position="0,0"
       orientation="0,768"
       id="guide3015" />
    <sodipodi:guide
       position="359,0"
       orientation="1,0"
       id="guide3017" />
    <sodipodi:guide
       position="768,1024"
       orientation="0,-768"
       id="guide3019" />
    <sodipodi:guide
       position="0,1024"
       orientation="1024,0"
       id="guide3021" />
  </sodipodi:namedview>
  <defs
     id="defs5498" />
  <g
     id="layer1"
     transform="translate(0,24)" />
  <path
     id="path3816"
     style="fill:#000000;fill-opacity:1;fill-rule:evenodd;stroke:none"
     d="M 512.99856,413.10367 C 512.99856,567.27674 458.05415,682 359,682 259.94585,682 217.72098,567.27674 217.72098,413.10367 217.72098,258.93061 259.00122,137 359,137 c 99.99878,0 153.99856,121.93061 153.99856,276.10367 z m 205.0882,0 C 718.08676,639.26428 609.76123,819 359,819 108.23878,819 0,639.26428 0,413.10367 0,186.94306 108.23878,0 359,0 609.76123,0 718.08676,186.94306 718.08676,413.10367 z"
     inkscape:connector-curvature="0"
     sodipodi:nodetypes="szszssssss" />
</svg>
