<?xml version="1.0" encoding="UTF-8" standalone="no"?>
<!-- Created with Inkscape (http://www.inkscape.org/) -->

<svg
   xmlns:dc="http://purl.org/dc/elements/1.1/"
   xmlns:cc="http://creativecommons.org/ns#"
   xmlns:rdf="http://www.w3.org/1999/02/22-rdf-syntax-ns#"
   xmlns:svg="http://www.w3.org/2000/svg"
   xmlns="http://www.w3.org/2000/svg"
   xmlns:sodipodi="http://sodipodi.sourceforge.net/DTD/sodipodi-0.dtd"
   xmlns:inkscape="http://www.inkscape.org/namespaces/inkscape"
   version="1.0"
   width="1024"
   height="1024"
   id="svg5496"
   sodipodi:version="0.32"
   inkscape:version="0.48.1 r9760"
   sodipodi:docname="period.svg"
   inkscape:output_extension="org.inkscape.output.svg.inkscape">
  <metadata
     id="metadata5594">
    <rdf:RDF>
      <cc:Work
         rdf:about="">
        <dc:format>image/svg+xml</dc:format>
        <dc:type
           rdf:resource="http://purl.org/dc/dcmitype/StillImage" />
        <dc:title></dc:title>
      </cc:Work>
    </rdf:RDF>
  </metadata>
  <sodipodi:namedview
     inkscape:window-height="1027"
     inkscape:window-width="1856"
     inkscape:pageshadow="2"
     inkscape:pageopacity="0.0"
     borderopacity="1.0"
     bordercolor="#666666"
     pagecolor="#ffffff"
     id="base"
     showgrid="false"
     showguides="true"
     inkscape:guide-bbox="true"
     inkscape:zoom="0.70710678"
     inkscape:cx="379.57688"
     inkscape:cy="229.93168"
     inkscape:window-x="64"
     inkscape:window-y="0"
     inkscape:current-layer="svg5496"
     inkscape:window-maximized="1"
     inkscape:snap-global="true">
    <sodipodi:guide
       orientation="horizontal"
       position="-0.34375,205"
       id="guide5596" />
    <sodipodi:guide
       position="187.81641,404.9961"
       orientation="0,1024"
       id="guide3041" />
    <sodipodi:guide
       position="1024,0"
       orientation="-1024,0"
       id="guide3043" />
    <sodipodi:guide
       position="1024,1024"
       orientation="0,-1024"
       id="guide3045" />
    <sodipodi:guide
       position="0,1024"
       orientation="1024,0"
       id="guide3047" />
  </sodipodi:namedview>
  <defs
     id="defs5498" />
  <g
     id="layer1"
     transform="translate(0,24)" />
  <path
     id="path3793"
     style="fill:#000000;fill-opacity:1;stroke:none"
     d="m 50.000032,719.00002 c 0.03348,19.7571 15.012159,23.19457 25.958357,28.78678 C 85.321859,752.57042 133.03468,772.68653 134,819 134.96532,865.31347 116.86543,908.27998 103.29459,935.95134 89.723747,963.6227 96.552695,974.0171 112,974 130.70536,973.9793 154.65557,963.12109 175.25125,948.25157 195.84693,933.38205 253.89738,884.2325 254,798 254.10262,711.7675 194.67615,646.14972 174.73158,629.75633 165.37442,622.06523 158.18097,619.00084 149.99891,619 c -20.53599,0.008 -26.36826,26.18452 -49.99889,50 -23.630632,23.81548 -50.033462,30.24292 -49.999988,50.00002 z"
     inkscape:connector-curvature="0"
     sodipodi:nodetypes="zszzszzscsz" />
</svg>
