<?xml version="1.0" encoding="UTF-8" standalone="no"?>
<!-- Created with Inkscape (http://www.inkscape.org/) -->

<svg
   xmlns:dc="http://purl.org/dc/elements/1.1/"
   xmlns:cc="http://creativecommons.org/ns#"
   xmlns:rdf="http://www.w3.org/1999/02/22-rdf-syntax-ns#"
   xmlns:svg="http://www.w3.org/2000/svg"
   xmlns="http://www.w3.org/2000/svg"
   xmlns:sodipodi="http://sodipodi.sourceforge.net/DTD/sodipodi-0.dtd"
   xmlns:inkscape="http://www.inkscape.org/namespaces/inkscape"
   version="1.0"
   width="1024"
   height="1024"
   id="svg5496"
   sodipodi:version="0.32"
   inkscape:version="0.48.1 r9760"
   sodipodi:docname="D.svg"
   inkscape:output_extension="org.inkscape.output.svg.inkscape">
  <metadata
     id="metadata5594">
    <rdf:RDF>
      <cc:Work
         rdf:about="">
        <dc:format>image/svg+xml</dc:format>
        <dc:type
           rdf:resource="http://purl.org/dc/dcmitype/StillImage" />
        <dc:title />
      </cc:Work>
    </rdf:RDF>
  </metadata>
  <sodipodi:namedview
     inkscape:window-height="1027"
     inkscape:window-width="1856"
     inkscape:pageshadow="2"
     inkscape:pageopacity="0.0"
     borderopacity="1.0"
     bordercolor="#666666"
     pagecolor="#ffffff"
     id="base"
     showgrid="false"
     showguides="true"
     inkscape:guide-bbox="true"
     inkscape:zoom="0.42333985"
     inkscape:cx="657.13385"
     inkscape:cy="138.96707"
     inkscape:window-x="64"
     inkscape:window-y="0"
     inkscape:current-layer="svg5496"
     inkscape:window-maximized="1">
    <sodipodi:guide
       orientation="horizontal"
       position="280.28718,205.45641"
       id="guide5596" />
    <sodipodi:guide
       position="0,0"
       orientation="0,1024"
       id="guide3838" />
    <sodipodi:guide
       position="275.60037,1102.4015"
       orientation="-1024,0"
       id="guide3840" />
    <sodipodi:guide
       position="0,775.97232"
       orientation="0,-1024"
       id="guide3842" />
    <sodipodi:guide
       position="0,1024"
       orientation="1024,0"
       id="guide3844" />
  </sodipodi:namedview>
  <defs
     id="defs5498" />
  <g
     id="layer1"
     transform="translate(0,24)" />
  <path
     id="path3834"
     style="fill:#000000;fill-opacity:1;fill-rule:evenodd;stroke:none"
     d="m 281.41802,141.11845 c -11.36532,10.92736 -6.25708,507.31381 -4.32228,522.01944 1.08234,8.22634 2.36988,14.6194 13.71589,17.4405 39.86518,9.91217 78.11439,22.60792 148.70188,19.03275 102.56904,-5.195 161.04374,-128.78162 162.43773,-240.85179 2.17234,-174.64583 -48.63044,-329.75603 -196.12522,-341.60241 -67.00203,-5.38142 -110.28476,10.38252 -124.408,23.96151 z M 0,819 C 0,786.35396 60.590539,778.07655 60.921634,727.08779 61.300412,668.756 64.023964,131.04915 63.570401,105.95201 62.577113,50.990103 38.749259,59.16483 29.136434,35.759695 21.521229,17.218327 34.367913,0.00134415 47.6778,0.00134415 c 36.089446,0 67.4217,5.11874175 111.12635,5.11874175 43.70466,0 80.3516,-5.2160272 98.01233,-5.11874175 17.66072,0.09728545 18.71549,16.35451385 18.74963,26.85778485 0.0343,10.540324 9.48334,18.012575 22.91123,12.871493 C 363.39209,14.876972 421.52537,0.35675964 459.06509,0.68556032 528.8828,1.2970757 583.56507,16.118932 638.38593,61.414251 725.28502,133.21397 778.97045,248.02768 777.72677,455.48519 777.0163,573.99821 743.68842,685.00542 663.84762,747.31455 c -63.16752,49.29702 -128.11267,71.22902 -230.41539,71.22903 -92.6761,10e-6 -124.51118,-40.83565 -148.59203,-33.75704 -15.468,4.54685 5.19785,33.75704 -24.37238,33.75704 -12.27408,0 -100.21743,-4.66232 -143.9221,-4.66232 C 70.967703,813.88126 30.460816,819 0,819 z"
     inkscape:connector-curvature="0"
     sodipodi:nodetypes="ssssssscssssssssssssssscc" />
</svg>
