<?xml version="1.0" encoding="UTF-8" standalone="no"?>
<!-- Created with Inkscape (http://www.inkscape.org/) -->

<svg
   xmlns:dc="http://purl.org/dc/elements/1.1/"
   xmlns:cc="http://creativecommons.org/ns#"
   xmlns:rdf="http://www.w3.org/1999/02/22-rdf-syntax-ns#"
   xmlns:svg="http://www.w3.org/2000/svg"
   xmlns="http://www.w3.org/2000/svg"
   xmlns:sodipodi="http://sodipodi.sourceforge.net/DTD/sodipodi-0.dtd"
   xmlns:inkscape="http://www.inkscape.org/namespaces/inkscape"
   version="1.0"
   width="1024"
   height="1024"
   id="svg5496"
   sodipodi:version="0.32"
   inkscape:version="0.48.1 r9760"
   sodipodi:docname="quote-left.svg"
   inkscape:output_extension="org.inkscape.output.svg.inkscape">
  <metadata
     id="metadata5594">
    <rdf:RDF>
      <cc:Work
         rdf:about="">
        <dc:format>image/svg+xml</dc:format>
        <dc:type
           rdf:resource="http://purl.org/dc/dcmitype/StillImage" />
        <dc:title></dc:title>
      </cc:Work>
    </rdf:RDF>
  </metadata>
  <sodipodi:namedview
     inkscape:window-height="1027"
     inkscape:window-width="1856"
     inkscape:pageshadow="2"
     inkscape:pageopacity="0.0"
     borderopacity="1.0"
     bordercolor="#666666"
     pagecolor="#ffffff"
     id="base"
     showgrid="false"
     showguides="true"
     inkscape:guide-bbox="true"
     inkscape:zoom="1.4142136"
     inkscape:cx="327.29261"
     inkscape:cy="761.83084"
     inkscape:window-x="64"
     inkscape:window-y="0"
     inkscape:current-layer="svg5496"
     inkscape:window-maximized="1"
     inkscape:snap-global="true">
    <sodipodi:guide
       orientation="horizontal"
       position="-0.34375,205"
       id="guide5596" />
    <sodipodi:guide
       position="-305.47013,205"
       orientation="0,1024"
       id="guide3041" />
    <sodipodi:guide
       position="1024,0"
       orientation="-1024,0"
       id="guide3043" />
    <sodipodi:guide
       position="1024,1024"
       orientation="0,-1024"
       id="guide3045" />
    <sodipodi:guide
       position="0,1024"
       orientation="1024,0"
       id="guide3047" />
  </sodipodi:namedview>
  <defs
     id="defs5498" />
  <g
     id="layer1"
     transform="translate(0,24)" />
  <g
     id="g3049"
     transform="matrix(-1,0,0,1,356.00004,0)">
    <path
       sodipodi:nodetypes="zszzszzscsz"
       inkscape:connector-curvature="0"
       d="m 66.000023,97.529443 c 0.02462,11.027277 10.034099,17.514727 17.087016,23.166737 6.8849,5.51737 27.967841,24.30863 28.677631,58.36265 0.70979,34.05402 -8.59894,71.64703 -18.577494,91.99362 -9.978556,20.34659 -8.957273,29.98953 2.401033,29.97696 13.753931,-0.0152 29.364371,-9.9992 44.508251,-20.93268 C 155.24033,269.16327 185.92445,235.0239 185.9999,171.61765 186.0753,108.2114 156.37946,59.963039 141.71434,47.909079 134.83408,42.253855 129.54478,40.000618 123.52857,40 108.42858,40.0059 112.14015,51.253333 94.7647,68.764711 77.389243,86.276104 65.975403,86.502163 66.000023,97.529443 z"
       style="fill:#000000;fill-opacity:1;stroke:none"
       id="path3793" />
    <path
       id="path3028"
       style="fill:#000000;fill-opacity:1;stroke:none"
       d="m 186.00002,57.529443 c 0.0246,11.027277 10.0341,17.514727 17.08702,23.166737 6.8849,5.51737 27.96784,24.30863 28.67763,58.36265 0.70979,34.05402 -8.59894,71.64703 -18.57749,91.99362 -9.97856,20.34659 -8.95728,29.98953 2.40103,29.97696 13.75393,-0.0152 29.36437,-9.9992 44.50825,-20.93268 C 275.24033,229.16327 305.92445,195.0239 305.9999,131.61765 306.0753,68.2114 276.37946,19.963039 261.71434,7.909079 254.83408,2.253855 249.54478,6.18e-4 243.52857,0 228.42858,0.0059 232.14015,11.253333 214.7647,28.764711 197.38924,46.276104 185.9754,46.502163 186.00002,57.529443 z"
       inkscape:connector-curvature="0"
       sodipodi:nodetypes="zszzszzscsz" />
  </g>
</svg>
