<?xml version="1.0" encoding="UTF-8" standalone="no"?>
<!-- Created with Inkscape (http://www.inkscape.org/) -->

<svg
   xmlns:dc="http://purl.org/dc/elements/1.1/"
   xmlns:cc="http://creativecommons.org/ns#"
   xmlns:rdf="http://www.w3.org/1999/02/22-rdf-syntax-ns#"
   xmlns:svg="http://www.w3.org/2000/svg"
   xmlns="http://www.w3.org/2000/svg"
   xmlns:sodipodi="http://sodipodi.sourceforge.net/DTD/sodipodi-0.dtd"
   xmlns:inkscape="http://www.inkscape.org/namespaces/inkscape"
   version="1.0"
   width="1024"
   height="1024"
   id="svg5496"
   sodipodi:version="0.32"
   inkscape:version="0.48.1 r9760"
   sodipodi:docname="F.svg"
   inkscape:output_extension="org.inkscape.output.svg.inkscape">
  <metadata
     id="metadata5594">
    <rdf:RDF>
      <cc:Work
         rdf:about="">
        <dc:format>image/svg+xml</dc:format>
        <dc:type
           rdf:resource="http://purl.org/dc/dcmitype/StillImage" />
        <dc:title />
      </cc:Work>
    </rdf:RDF>
  </metadata>
  <sodipodi:namedview
     inkscape:window-height="1027"
     inkscape:window-width="1856"
     inkscape:pageshadow="2"
     inkscape:pageopacity="0.0"
     borderopacity="1.0"
     bordercolor="#666666"
     pagecolor="#ffffff"
     id="base"
     showgrid="false"
     showguides="true"
     inkscape:guide-bbox="true"
     inkscape:zoom="0.61306158"
     inkscape:cx="959.43938"
     inkscape:cy="479.03425"
     inkscape:window-x="64"
     inkscape:window-y="0"
     inkscape:current-layer="svg5496"
     inkscape:window-maximized="1"
     inkscape:snap-global="true">
    <sodipodi:guide
       orientation="horizontal"
       position="200"
       id="guide5596" />
    <sodipodi:guide
       position="0,0"
       orientation="0,1000"
       id="guide2985" />
    <sodipodi:guide
       position="313.14879,161.188"
       orientation="-1000,0"
       id="guide2987" />
    <sodipodi:guide
       position="0,775.80738"
       orientation="0,-1000"
       id="guide2989" />
    <sodipodi:guide
       position="0,1000"
       orientation="1000,0"
       id="guide2991" />
    <sodipodi:guide
       position="385.36096,267.91762"
       orientation="0,1000"
       id="guide3012" />
    <sodipodi:guide
       position="267.58939,166.95502"
       orientation="-1000,0"
       id="guide3014" />
    <sodipodi:guide
       position="333.16392,232.03216"
       orientation="0,-1000"
       id="guide3016" />
    <sodipodi:guide
       position="0,1000"
       orientation="1000,0"
       id="guide3018" />
    <sodipodi:guide
       position="0,0"
       orientation="0,1000"
       id="guide3020" />
    <sodipodi:guide
       position="44.982699,176.18224"
       orientation="-1000,0"
       id="guide3022" />
    <sodipodi:guide
       position="1000,1000"
       orientation="0,-1000"
       id="guide3024" />
    <sodipodi:guide
       position="0,1000"
       orientation="1000,0"
       id="guide3026" />
    <sodipodi:guide
       position="0,0"
       orientation="0,1024"
       id="guide2997" />
    <sodipodi:guide
       position="1024,0"
       orientation="-1024,0"
       id="guide2999" />
    <sodipodi:guide
       position="607.19838,641.45269"
       orientation="0,-1024"
       id="guide3001" />
    <sodipodi:guide
       position="0,1024"
       orientation="1024,0"
       id="guide3003" />
  </sodipodi:namedview>
  <defs
     id="defs5498" />
  <g
     id="layer1"
     transform="translate(0,24)" />
  <g
     transform="matrix(1.0704688,0,0,0.97907012,0,1.2259899e-5)"
     style="font-size:1045.63500977px;font-style:normal;font-variant:normal;font-weight:500;font-stretch:normal;line-height:125%;letter-spacing:0px;word-spacing:0px;fill:#000000;fill-opacity:1;stroke:none;font-family:Oakura;-inkscape-font-specification:Oakura Medium"
     id="text4177">
    <path
       d="M 20.9127,803.04768 C 35.551555,790.5001 42.870993,777.95249 42.871035,765.40481 l 0,-668.160766 C 42.870993,77.029193 39.734091,60.29905 33.46032,47.053563 27.186483,33.809656 24.049581,25.096039 24.049605,20.912688 24.049581,6.9717174 29.97484,8.2430098e-4 41.8254,-1.2207031e-5 195.23218,2.166341 291.28555,3.3685137 428.29788,3.136905 565.3102,2.9052962 672.3441,0.00484792 688.42808,0 c 15.01654,-0.00452618 21.34298,7.554699 23.6476,12.381174 2.30461,4.826475 9.75728,35.952867 23.27395,69.436001 13.51667,33.483135 29.56479,61.571335 34.79271,75.211375 12.3055,32.10595 8.75961,62.57887 -26.07216,18.34023 -14.41397,-18.30669 -31.20084,-38.05971 -61.35642,-51.29521 -30.15559,-13.2355 -54.14465,-18.39387 -112.76107,-20.74024 -58.61642,-2.34637 -284.33589,-6.90205 -294.98949,-2.63158 -10.65359,4.27048 -18.78288,19.19847 -18.78262,33.13952 0,0 -0.38999,102.60747 0,109.87785 0.38999,7.27038 2.48106,9.28825 10.07929,9.50229 42.68779,1.2025 156.71713,4.90745 249.17087,4.32704 49.20818,-0.30892 100.09077,-8.96602 110.6514,1.9207 11.6948,12.05592 -16.6996,28.29959 -35.72763,59.16266 -23.61057,38.29584 -30.66996,67.06046 -44.63196,71.5591 -15.88134,5.11707 -67.43176,-40.45185 -142.59936,-62.20339 -40.34405,-11.67451 -103.05934,-12.06933 -135.93547,-11.28204 -11.40379,0.27308 -11.00368,8.0854 -11.00714,13.67065 l -0.26968,435.11482 c 0,15.69309 9.06867,25.04108 22.86027,37.5231 13.79159,12.48202 20.71076,23.42432 20.71076,33.49394 -43.57103,0 -92.58415,-1.40801 -158.3212,-1.56845 C 75.423684,834.7791 44.122568,836.50799 0,836.508 0,826.74875 6.9708931,815.59532 20.9127,803.04768 z"
       id="path4182"
       inkscape:connector-curvature="0"
       sodipodi:nodetypes="csscsczszssszzzczssssssssczczcc"
       style="fill:#000000;fill-opacity:1;stroke:none" />
  </g>
</svg>
