<?xml version="1.0" encoding="UTF-8" standalone="no"?>
<!-- Created with Inkscape (http://www.inkscape.org/) -->

<svg
   xmlns:dc="http://purl.org/dc/elements/1.1/"
   xmlns:cc="http://creativecommons.org/ns#"
   xmlns:rdf="http://www.w3.org/1999/02/22-rdf-syntax-ns#"
   xmlns:svg="http://www.w3.org/2000/svg"
   xmlns="http://www.w3.org/2000/svg"
   xmlns:sodipodi="http://sodipodi.sourceforge.net/DTD/sodipodi-0.dtd"
   xmlns:inkscape="http://www.inkscape.org/namespaces/inkscape"
   version="1.0"
   width="1024"
   height="1024"
   id="svg5496"
   sodipodi:version="0.32"
   inkscape:version="0.48.1 r9760"
   sodipodi:docname="g2.svg"
   inkscape:output_extension="org.inkscape.output.svg.inkscape">
  <metadata
     id="metadata5594">
    <rdf:RDF>
      <cc:Work
         rdf:about="">
        <dc:format>image/svg+xml</dc:format>
        <dc:type
           rdf:resource="http://purl.org/dc/dcmitype/StillImage" />
        <dc:title />
      </cc:Work>
    </rdf:RDF>
  </metadata>
  <sodipodi:namedview
     inkscape:window-height="1027"
     inkscape:window-width="1856"
     inkscape:pageshadow="2"
     inkscape:pageopacity="0.0"
     borderopacity="1.0"
     bordercolor="#666666"
     pagecolor="#ffffff"
     id="base"
     showgrid="false"
     showguides="true"
     inkscape:guide-bbox="true"
     inkscape:zoom="0.35355339"
     inkscape:cx="307.93266"
     inkscape:cy="509.59348"
     inkscape:window-x="64"
     inkscape:window-y="0"
     inkscape:current-layer="svg5496"
     inkscape:window-maximized="1"
     inkscape:snap-global="false">
    <sodipodi:guide
       orientation="0,1"
       position="0,205"
       id="guide5596" />
    <sodipodi:guide
       position="0,0"
       orientation="0,1000"
       id="guide2985" />
    <sodipodi:guide
       position="160,533.85006"
       orientation="1,0"
       id="guide2987" />
    <sodipodi:guide
       position="712.81583,776.43097"
       orientation="0,-1000"
       id="guide2989" />
    <sodipodi:guide
       position="486.5,608.5"
       orientation="0.92050485,-0.39073113"
       id="guide2991" />
    <sodipodi:guide
       position="385.36096,260"
       orientation="0,1"
       id="guide3012" />
    <sodipodi:guide
       position="267.58939,166.95502"
       orientation="-1000,0"
       id="guide3014" />
    <sodipodi:guide
       position="80.15508,229.7779"
       orientation="0,-1000"
       id="guide3016" />
    <sodipodi:guide
       position="0,1000"
       orientation="1000,0"
       id="guide3018" />
    <sodipodi:guide
       position="0,0"
       orientation="0,1000"
       id="guide3020" />
    <sodipodi:guide
       position="20,176.18224"
       orientation="1,0"
       id="guide3022" />
    <sodipodi:guide
       position="1000,1024"
       orientation="0,1"
       id="guide3024" />
    <sodipodi:guide
       position="0,1000"
       orientation="1000,0"
       id="guide3026" />
    <sodipodi:guide
       position="0,0"
       orientation="0,1024"
       id="guide2997" />
    <sodipodi:guide
       position="512,0"
       orientation="1,0"
       id="guide2999" />
    <sodipodi:guide
       position="607.19838,641.45269"
       orientation="0,-1024"
       id="guide3001" />
    <sodipodi:guide
       position="0,1024"
       orientation="1024,0"
       id="guide3003" />
  </sodipodi:namedview>
  <defs
     id="defs5498" />
  <g
     id="layer1"
     transform="translate(0,24)" />
  <g
     transform="matrix(-1.0704688,0,0,0.97907012,584.02499,248.00001)"
     style="font-size:1045.63500977px;font-style:normal;font-variant:normal;font-weight:500;font-stretch:normal;line-height:125%;letter-spacing:0px;word-spacing:0px;fill:#000000;fill-opacity:1;stroke:none;font-family:Oakura;-inkscape-font-specification:Oakura Medium"
     id="text4177" />
  <path
     id="path5442"
     style="fill:#000000;fill-opacity:1;fill-rule:evenodd;stroke:none"
     d="m 292.4773,969.5779 c 68.04863,-5.35719 134.7943,-60.84174 125.46922,-104.45908 -13.11421,-61.3407 -62.11549,-56.53765 -137.00135,-87.5167 14.73571,21.1223 34.49528,50.38004 18.90514,73.89926 -18.72703,28.25152 -66.42505,12.25872 -94.51497,2.29834 -28.94429,-10.26333 -88.40917,-45.69253 -89.0569,12.87363 -0.60734,54.91504 93.24344,109.43529 176.19886,102.90455 z M 145.75887,726.32689 c 20.66345,-3.35719 48.50222,-0.0644 81.6596,14.32842 C 206.74815,725.20032 180.32348,693.73357 181.87063,669.49539 182.59108,658.20864 148.0493,650.5923 108.39235,611.04402 54.609527,557.40857 40.294084,453.26397 78.08326,374.47174 115.28167,296.91129 190.96345,247.79445 276.4356,247.56904 c 55.04606,-0.14517 111.20686,29.54116 129.82882,43.87343 10.62203,8.17517 25.74952,-9.05103 65.9814,-18.83713 32.12082,-7.81315 100.68737,-0.026 112.94846,13.94361 9.04917,10.31013 -18.72477,28.10651 -32.09802,50.10335 -19.95064,32.8156 -18.8724,54.19655 -27.73019,58.52349 -16.30604,7.96533 -29.38364,-17.42161 -40.97029,-11.64377 -3.46173,1.72624 -2.18369,11.0718 0.13008,18.86973 5.08173,17.12662 10.1752,41.41779 8.71261,76.3701 -3.72449,89.00645 -45.98053,136.74451 -106.23799,174.82276 -60.30706,38.10959 -106.15107,24.44196 -111.19677,37.71101 -1.77939,4.67938 -0.39035,11.29559 8.31284,20.27679 20.6567,21.31656 56.68541,18.58856 123.1982,38.24751 41.75366,12.34098 86.62354,38.48225 107.98498,72.18562 62.74493,98.99688 -66.14331,202.67396 -246.80853,202.74356 -121.8392,0 -217.844787,-71.44795 -232.86902,-122.61429 C 14.95357,831.75606 42.321382,788.59524 61.913956,768.49403 81.50653,748.39282 110.16051,732.11055 145.75887,726.32689 z M 298.4356,342.27711 c 51.25473,6.64896 70.3415,60.21744 64.72865,132.1893 -5.61285,71.97186 -34.01932,133.64363 -86.9923,130.44033 -52.97298,-3.2033 -91.36288,-55.10676 -85.28927,-135.17843 6.0736,-80.07168 56.29819,-134.10016 107.55292,-127.4512 z"
     inkscape:connector-curvature="0"
     sodipodi:nodetypes="sscssssscssssssssssssssssscszszzzzz" />
</svg>
