<?xml version="1.0" encoding="UTF-8" standalone="no"?>
<!-- Created with Inkscape (http://www.inkscape.org/) -->

<svg
   xmlns:dc="http://purl.org/dc/elements/1.1/"
   xmlns:cc="http://creativecommons.org/ns#"
   xmlns:rdf="http://www.w3.org/1999/02/22-rdf-syntax-ns#"
   xmlns:svg="http://www.w3.org/2000/svg"
   xmlns="http://www.w3.org/2000/svg"
   xmlns:sodipodi="http://sodipodi.sourceforge.net/DTD/sodipodi-0.dtd"
   xmlns:inkscape="http://www.inkscape.org/namespaces/inkscape"
   version="1.0"
   width="1024"
   height="1024"
   id="svg5496"
   sodipodi:version="0.32"
   inkscape:version="0.48.1 r9760"
   sodipodi:docname="H.svg"
   inkscape:output_extension="org.inkscape.output.svg.inkscape">
  <metadata
     id="metadata5594">
    <rdf:RDF>
      <cc:Work
         rdf:about="">
        <dc:format>image/svg+xml</dc:format>
        <dc:type
           rdf:resource="http://purl.org/dc/dcmitype/StillImage" />
        <dc:title />
      </cc:Work>
    </rdf:RDF>
  </metadata>
  <sodipodi:namedview
     inkscape:window-height="773"
     inkscape:window-width="1474"
     inkscape:pageshadow="2"
     inkscape:pageopacity="0.0"
     borderopacity="1.0"
     bordercolor="#666666"
     pagecolor="#ffffff"
     id="base"
     showgrid="false"
     showguides="true"
     inkscape:guide-bbox="true"
     inkscape:zoom="1.4142136"
     inkscape:cx="338.08332"
     inkscape:cy="697.3238"
     inkscape:window-x="64"
     inkscape:window-y="25"
     inkscape:current-layer="svg5496"
     inkscape:window-maximized="0">
    <sodipodi:guide
       orientation="horizontal"
       position="0,205"
       id="guide5596" />
    <sodipodi:guide
       position="0,0"
       orientation="0,1000"
       id="guide2984" />
    <sodipodi:guide
       position="1000,0"
       orientation="-1000,0"
       id="guide2986" />
    <sodipodi:guide
       position="0,776.40325"
       orientation="0,-1000"
       id="guide2988" />
    <sodipodi:guide
       position="0,204.63007"
       orientation="1000,0"
       id="guide2990" />
  </sodipodi:namedview>
  <defs
     id="defs5498" />
  <g
     id="layer1"
     transform="translate(0,24)" />
  <path
     style="fill:#000000;fill-opacity:1;stroke:none"
     d="M 176.74664,813.88197 C 118.67033,813.68773 16.341282,819 0,819 c 0,-26.44802 21.02485,-28.86054 33.779021,-51.18033 12.754172,-22.31981 7.165247,-78.09793 7.165247,-78.09793 -0.797136,-55.00237 0,-566.77429 0,-566.77429 0,-32.682563 0.901935,-52.753556 -5.118034,-66.534438 C 25.393108,32.529554 20.707512,34.314675 12.971668,18.533193 8.4937154,9.397962 19.411614,0.13985 25.590167,0.114644 45.520155,0.033334 112.13708,5.275592 166.58316,5.232677 207.99734,5.200035 248.28361,0 257.94889,0 c 9.66526,0 15.25388,6.658328 15.3541,13.43842 0.1167,7.894988 -2.70398,10.215886 -8.97107,16.53478 -8.3475,8.41651 -16.6191,4.327388 -16.6191,31.03441 l 0,161.09429 c 0.29892,14.14916 5.35956,14.74684 9.14596,19.43001 3.78639,4.68317 9.15592,6.32727 25.20941,6.32727 l 257.70144,0 c 14.64738,0 21.53944,-0.66456 28.38226,-8.8239 9.18737,-10.95498 7.21471,-22.11464 7.11507,-31.08241 -0.0997,-8.96778 0,-146.94526 0,-146.94526 0.0996,-18.433763 -7.5522,-25.66353 -15.75908,-31.03441 -8.20688,-5.37088 -9.75291,-7.027087 -9.83108,-16.53478 -0.0782,-9.507693 6.58288,-13.135293 15.3541,-13.33913 12.86291,-0.298926 114.5091,5.380804 145.39811,5.281162 30.889,-0.09964 64.62272,-5.149311 78.77175,-5.265808 12.10195,-0.09964 15.32887,10.554088 13.30689,18.42492 -2.02198,7.870833 -16.05192,17.440457 -23.54296,37.873448 -6.34722,17.31308 -5.91516,51.488498 -5.11803,66.534438 0.79714,15.04593 0,565.08011 0,565.08011 0,18.03519 -5.13607,58.97023 7.16525,79.79211 12.30131,20.82188 33.90967,25.33222 33.77902,51.18033 -17.33771,0 -59.47921,-5.24754 -169.71111,-5.11803 C 594.56098,813.94134 584.50186,819 551.72401,819 c -6.16408,0 -13.77249,-6.30945 -10.23607,-15.3541 3.80581,-9.73365 12.1528,-13.16644 21.49574,-25.59017 10.1413,-13.48535 12.28327,-31.64949 12.28327,-51.18033 l 0,-392.66739 c -1.549,-17.83129 -6.3468,-19.58911 -12.93323,-22.78208 -6.58643,-3.19297 -37.56183,-2.69209 -85.77325,23.0169 -48.21143,25.70899 -54.55448,42.24914 -60.89062,42.35908 -6.33613,0.10993 -20.7984,-17.313 -71.20348,-43.34626 -50.40509,-26.03325 -74.60612,-27.90932 -81.23051,-25.32675 -6.6244,2.58257 -15.52304,7.73221 -15.52304,27.66459 l 0,391.08191 c -0.39857,23.11693 3.12345,37.71748 12.28328,51.18033 8.4855,12.47174 17.84559,14.56783 21.49574,25.59017 2.39527,7.23298 -3.36283,15.3541 -10.23607,15.3541 -6.92854,0 -58.01857,-4.99599 -94.50913,-5.11803 z"
     id="path5442"
     inkscape:connector-curvature="0"
     sodipodi:nodetypes="scsccsssssssscsscssczzssszssczcsssssczzzzzscssss" />
</svg>
