<?xml version="1.0" encoding="UTF-8" standalone="no"?>
<!-- Created with Inkscape (http://www.inkscape.org/) -->

<svg
   xmlns:dc="http://purl.org/dc/elements/1.1/"
   xmlns:cc="http://creativecommons.org/ns#"
   xmlns:rdf="http://www.w3.org/1999/02/22-rdf-syntax-ns#"
   xmlns:svg="http://www.w3.org/2000/svg"
   xmlns="http://www.w3.org/2000/svg"
   xmlns:sodipodi="http://sodipodi.sourceforge.net/DTD/sodipodi-0.dtd"
   xmlns:inkscape="http://www.inkscape.org/namespaces/inkscape"
   version="1.0"
   width="1024"
   height="1024"
   id="svg5496"
   sodipodi:version="0.32"
   inkscape:version="0.48.1 r9760"
   sodipodi:docname="h.svg"
   inkscape:output_extension="org.inkscape.output.svg.inkscape">
  <metadata
     id="metadata5594">
    <rdf:RDF>
      <cc:Work
         rdf:about="">
        <dc:format>image/svg+xml</dc:format>
        <dc:type
           rdf:resource="http://purl.org/dc/dcmitype/StillImage" />
        <dc:title />
      </cc:Work>
    </rdf:RDF>
  </metadata>
  <sodipodi:namedview
     inkscape:window-height="1027"
     inkscape:window-width="1856"
     inkscape:pageshadow="2"
     inkscape:pageopacity="0.0"
     borderopacity="1.0"
     bordercolor="#666666"
     pagecolor="#ffffff"
     id="base"
     showgrid="false"
     showguides="true"
     inkscape:guide-bbox="true"
     inkscape:zoom="0.84667969"
     inkscape:cx="512"
     inkscape:cy="512"
     inkscape:window-x="64"
     inkscape:window-y="0"
     inkscape:current-layer="svg5496"
     inkscape:window-maximized="1"
     inkscape:snap-global="true">
    <sodipodi:guide
       orientation="0,1"
       position="0,205"
       id="guide5596" />
    <sodipodi:guide
       position="0,0"
       orientation="0,1000"
       id="guide2985" />
    <sodipodi:guide
       position="160,533.85006"
       orientation="1,0"
       id="guide2987" />
    <sodipodi:guide
       position="712.81583,776.43097"
       orientation="0,-1000"
       id="guide2989" />
    <sodipodi:guide
       position="0,1000"
       orientation="1000,0"
       id="guide2991" />
    <sodipodi:guide
       position="385.36096,260"
       orientation="0,1"
       id="guide3012" />
    <sodipodi:guide
       position="380,0"
       orientation="1,0"
       id="guide3014" />
    <sodipodi:guide
       position="80.15508,229.7779"
       orientation="0,-1000"
       id="guide3016" />
    <sodipodi:guide
       position="0,1000"
       orientation="1000,0"
       id="guide3018" />
    <sodipodi:guide
       position="0,0"
       orientation="0,1000"
       id="guide3020" />
    <sodipodi:guide
       position="20,176.18224"
       orientation="1,0"
       id="guide3022" />
    <sodipodi:guide
       position="150,1024"
       orientation="0,1"
       id="guide3024" />
    <sodipodi:guide
       position="0,1000"
       orientation="1000,0"
       id="guide3026" />
    <sodipodi:guide
       position="0,0"
       orientation="0,1024"
       id="guide2997" />
    <sodipodi:guide
       position="520,0"
       orientation="1,0"
       id="guide2999" />
    <sodipodi:guide
       position="607.19838,641.45269"
       orientation="0,-1024"
       id="guide3001" />
    <sodipodi:guide
       position="0,1024"
       orientation="1024,0"
       id="guide3003" />
  </sodipodi:namedview>
  <defs
     id="defs5498" />
  <g
     id="layer1"
     transform="translate(0,24)" />
  <g
     transform="matrix(1.0704688,0,0,-1.0314207,-24.000001,818.54598)"
     style="font-size:1045.63500976999989689px;font-style:normal;font-variant:normal;font-weight:500;font-stretch:normal;line-height:125%;letter-spacing:0px;word-spacing:0px;fill:#000000;fill-opacity:1;stroke:none;font-family:Oakura;-inkscape-font-specification:Oakura Medium"
     id="text4177">
    <path
       d="m 508.18856,52.884318 0,285.165472 c 0,84.66683 -16.36172,107.85132 -28.29318,125.72132 -11.93146,17.87 -31.25704,45.19505 -67.87754,64.55387 -36.6205,19.35882 -55.38941,25.25801 -117.20365,25.25801 -73.95845,10e-6 -107.15698,-57.31708 -115.65642,-56.33026 -5.30148,0.61552 -7.27046,4.20726 -7.27046,9.7925 l 0,203.40345 c 0,29.50407 25.03787,83.16151 -9.3417,83.16151 -29.18185,0 -41.56107,-53.48484 -57.64481,-73.68477 -36.478213,-45.8138 -82.480715,-38.32078 -82.480715,-56.93887 0,-17.94778 18.683403,-21.90634 18.683403,-56.55215 l 0,-553.550082 c 0,-29.301429 -18.683403,-29.301429 -18.683403,-53.32450695 40.355636,0 43.031484,2.30264915 76.831511,1.93907295 C 135.56333,1.1082902 152.57666,-0.44018471 190.57071,-0.44018895 190.31749,24.93386 171.88731,23.582889 171.88731,52.884318 l 0,352.701782 c 0,15.29541 17.12976,31.7944 32.86854,38.33973 26.9196,11.19513 73.63356,8.30619 101.55573,-2.93409 27.92217,-11.24027 68.06999,-38.86171 68.60397,-100.54904 l 2.48919,-287.558382 c 0.25363,-29.300247 -18.37748,-29.301429 -18.6834,-53.32450695 40.22365,0 52.71456,1.93907295 84.41392,1.93907295 31.69937,0 43.13884,-1.93907295 83.73671,-1.93907295 C 526.98532,23.582889 508.18856,23.582889 508.18856,52.884318 z"
       id="path4182"
       inkscape:connector-curvature="0"
       sodipodi:nodetypes="sszzssssssssscscssszsscscs"
       style="fill:#000000;fill-opacity:1;stroke:none" />
  </g>
</svg>
