<?xml version="1.0" encoding="UTF-8" standalone="no"?>
<!-- Created with Inkscape (http://www.inkscape.org/) -->

<svg
   xmlns:dc="http://purl.org/dc/elements/1.1/"
   xmlns:cc="http://creativecommons.org/ns#"
   xmlns:rdf="http://www.w3.org/1999/02/22-rdf-syntax-ns#"
   xmlns:svg="http://www.w3.org/2000/svg"
   xmlns="http://www.w3.org/2000/svg"
   xmlns:sodipodi="http://sodipodi.sourceforge.net/DTD/sodipodi-0.dtd"
   xmlns:inkscape="http://www.inkscape.org/namespaces/inkscape"
   version="1.0"
   width="1024"
   height="1024"
   id="svg5496"
   sodipodi:version="0.32"
   inkscape:version="0.48.1 r9760"
   sodipodi:docname="k.svg"
   inkscape:output_extension="org.inkscape.output.svg.inkscape">
  <metadata
     id="metadata5594">
    <rdf:RDF>
      <cc:Work
         rdf:about="">
        <dc:format>image/svg+xml</dc:format>
        <dc:type
           rdf:resource="http://purl.org/dc/dcmitype/StillImage" />
        <dc:title />
      </cc:Work>
    </rdf:RDF>
  </metadata>
  <sodipodi:namedview
     inkscape:window-height="1027"
     inkscape:window-width="1856"
     inkscape:pageshadow="2"
     inkscape:pageopacity="0.0"
     borderopacity="1.0"
     bordercolor="#666666"
     pagecolor="#ffffff"
     id="base"
     showgrid="false"
     showguides="true"
     inkscape:guide-bbox="true"
     inkscape:zoom="2.8284271"
     inkscape:cx="16.544723"
     inkscape:cy="948.57183"
     inkscape:window-x="64"
     inkscape:window-y="0"
     inkscape:current-layer="svg5496"
     inkscape:window-maximized="1"
     inkscape:snap-global="true">
    <sodipodi:guide
       orientation="0,1"
       position="0,205"
       id="guide5596" />
    <sodipodi:guide
       position="0,0"
       orientation="0,1000"
       id="guide2985" />
    <sodipodi:guide
       position="160,533.85006"
       orientation="1,0"
       id="guide2987" />
    <sodipodi:guide
       position="712.81583,776.43097"
       orientation="0,-1000"
       id="guide2989" />
    <sodipodi:guide
       position="0,1000"
       orientation="1000,0"
       id="guide2991" />
    <sodipodi:guide
       position="385.36096,260"
       orientation="0,1"
       id="guide3012" />
    <sodipodi:guide
       position="380,0"
       orientation="1,0"
       id="guide3014" />
    <sodipodi:guide
       position="80.15508,229.7779"
       orientation="0,-1000"
       id="guide3016" />
    <sodipodi:guide
       position="0,1000"
       orientation="1000,0"
       id="guide3018" />
    <sodipodi:guide
       position="0,0"
       orientation="0,1000"
       id="guide3020" />
    <sodipodi:guide
       position="20,176.18224"
       orientation="1,0"
       id="guide3022" />
    <sodipodi:guide
       position="0,1024"
       orientation="0,1"
       id="guide3024" />
    <sodipodi:guide
       position="0,1000"
       orientation="1000,0"
       id="guide3026" />
    <sodipodi:guide
       position="0,0"
       orientation="0,1024"
       id="guide2997" />
    <sodipodi:guide
       position="520,0"
       orientation="1,0"
       id="guide2999" />
    <sodipodi:guide
       position="607.19838,641.45269"
       orientation="0,-1024"
       id="guide3001" />
    <sodipodi:guide
       position="0,1024"
       orientation="1024,0"
       id="guide3003" />
  </sodipodi:namedview>
  <defs
     id="defs5498" />
  <g
     id="layer1"
     transform="translate(0,24)" />
  <g
     transform="matrix(1.0704688,0,0,-1.0314207,-24.000001,818.54598)"
     style="font-size:1045.63500976999989689px;font-style:normal;font-variant:normal;font-weight:500;font-stretch:normal;line-height:125%;letter-spacing:0px;word-spacing:0px;fill:#000000;fill-opacity:1;stroke:none;font-family:Oakura;-inkscape-font-specification:Oakura Medium"
     id="text4177">
    <path
       d="m 377.40474,52.884318 c 0,-29.301429 -18.37748,-29.301429 -18.6834,-53.32450695 40.22365,0 52.71456,1.93907295 84.41392,1.93907295 31.69937,0 43.13884,-1.93907295 83.73671,-1.93907295 0.11335,24.02307795 -18.68341,24.02307795 -18.68341,53.32450695 0,76.054632 -40.60337,165.600262 -140.29386,223.358752 69.33893,17.76266 121.79235,75.88048 121.24438,130.23381 -0.6454,64.01649 -39.55887,101.60378 -77.12124,121.8481 -36.47271,19.65705 -55.38941,25.25801 -117.20365,25.25801 -73.95845,10e-6 -107.15698,-57.31708 -115.65642,-56.33026 -5.30148,0.61552 -7.27046,4.20726 -7.27046,9.7925 l 0,196.34282 c 0,29.50407 18.17748,90.22214 0,90.22214 -30.19472,0 -48.01308,-48.53308 -66.98651,-75.62384 -14.845347,-21.19657 -29.441214,-34.37781 -63.797312,-40.72054 -31.5642849,-5.82731 0,-38.15494 0,-55.31883 l 0,-569.062662 c 0,-29.301429 -18.683403,-29.301429 -18.683403,-53.32450695 40.355636,0 43.031484,2.30264915 76.831511,1.93907295 C 135.56333,1.1082902 152.57666,-0.44018471 190.57071,-0.44018895 190.31749,24.93386 171.88731,23.582889 171.88731,52.884318 l 0,201.107302 c 0,16.598 29.68761,0.5071 78.44388,2.98676 13.61515,0.69244 66.57209,-48.27179 88.84016,-80.10117 30.65276,-43.81423 38.23339,-86.876519 38.23339,-123.992892 z M 171.88731,405.5861 c 0,15.29541 17.12976,31.7944 32.86854,38.33973 26.9196,11.19513 56.31805,16.25471 90.76298,8.79361 34.44493,-7.4611 54.18525,-25.13196 59.78123,-50.01139 7.10768,-31.60038 -20.28885,-62.26545 -82.38492,-78.1263 -52.45772,-13.39898 -101.02783,-1.25834 -101.02783,13.75762 z"
       id="path4182"
       inkscape:connector-curvature="0"
       sodipodi:nodetypes="scscscssssssssssscscssssssszssss"
       style="fill:#000000;fill-opacity:1;stroke:none" />
  </g>
</svg>
