<?xml version="1.0" encoding="UTF-8" standalone="no"?>
<!-- Created with Inkscape (http://www.inkscape.org/) -->

<svg
   xmlns:dc="http://purl.org/dc/elements/1.1/"
   xmlns:cc="http://creativecommons.org/ns#"
   xmlns:rdf="http://www.w3.org/1999/02/22-rdf-syntax-ns#"
   xmlns:svg="http://www.w3.org/2000/svg"
   xmlns="http://www.w3.org/2000/svg"
   xmlns:sodipodi="http://sodipodi.sourceforge.net/DTD/sodipodi-0.dtd"
   xmlns:inkscape="http://www.inkscape.org/namespaces/inkscape"
   version="1.0"
   width="1024"
   height="1024"
   id="svg5496"
   sodipodi:version="0.32"
   inkscape:version="0.48.1 r9760"
   sodipodi:docname="O.svg"
   inkscape:output_extension="org.inkscape.output.svg.inkscape">
  <metadata
     id="metadata5594">
    <rdf:RDF>
      <cc:Work
         rdf:about="">
        <dc:format>image/svg+xml</dc:format>
        <dc:type
           rdf:resource="http://purl.org/dc/dcmitype/StillImage" />
        <dc:title />
      </cc:Work>
    </rdf:RDF>
  </metadata>
  <sodipodi:namedview
     inkscape:window-height="1027"
     inkscape:window-width="1856"
     inkscape:pageshadow="2"
     inkscape:pageopacity="0.0"
     borderopacity="1.0"
     bordercolor="#666666"
     pagecolor="#ffffff"
     id="base"
     showgrid="false"
     showguides="true"
     inkscape:guide-bbox="true"
     inkscape:zoom="0.32102648"
     inkscape:cx="32.833445"
     inkscape:cy="395.14691"
     inkscape:window-x="64"
     inkscape:window-y="0"
     inkscape:current-layer="svg5496"
     inkscape:window-maximized="1">
    <sodipodi:guide
       orientation="0,1"
       position="0,205"
       id="guide5596" />
    <sodipodi:guide
       position="0,0"
       orientation="0,1024"
       id="guide2984" />
    <sodipodi:guide
       position="1024,0"
       orientation="-1024,0"
       id="guide2986" />
    <sodipodi:guide
       position="1024,1024"
       orientation="0,-1024"
       id="guide2988" />
    <sodipodi:guide
       position="0,1024"
       orientation="1024,0"
       id="guide2990" />
  </sodipodi:namedview>
  <defs
     id="defs5498" />
  <g
     id="layer1"
     transform="translate(0,24)" />
  <path
     id="path3816"
     style="fill:#000000;fill-opacity:1;fill-rule:evenodd;stroke:none"
     d="m 702.99856,416.70734 c 0,154.17307 -108.63308,279.15504 -242.63878,279.15504 -134.00571,0 -242.6388,-124.98197 -242.6388,-279.15504 0,-154.17306 108.63309,-279.15502 242.6388,-279.15502 134.0057,0 242.63878,124.98196 242.63878,279.15502 z M 908.08676,409.5 C 908.08676,635.66061 704.80461,819 454.04338,819 203.28216,819 0,635.66061 0,409.5 0,183.33939 203.28216,0 454.04338,0 704.80461,0 908.08676,183.33939 908.08676,409.5 z"
     inkscape:connector-curvature="0" />
</svg>
