<?xml version="1.0" encoding="UTF-8" standalone="no"?>
<!-- Created with Inkscape (http://www.inkscape.org/) -->

<svg
   xmlns:dc="http://purl.org/dc/elements/1.1/"
   xmlns:cc="http://creativecommons.org/ns#"
   xmlns:rdf="http://www.w3.org/1999/02/22-rdf-syntax-ns#"
   xmlns:svg="http://www.w3.org/2000/svg"
   xmlns="http://www.w3.org/2000/svg"
   xmlns:sodipodi="http://sodipodi.sourceforge.net/DTD/sodipodi-0.dtd"
   xmlns:inkscape="http://www.inkscape.org/namespaces/inkscape"
   version="1.0"
   width="1024"
   height="1024"
   id="svg5496"
   sodipodi:version="0.32"
   inkscape:version="0.48.1 r9760"
   sodipodi:docname="apostrophe.svg"
   inkscape:output_extension="org.inkscape.output.svg.inkscape">
  <metadata
     id="metadata5594">
    <rdf:RDF>
      <cc:Work
         rdf:about="">
        <dc:format>image/svg+xml</dc:format>
        <dc:type
           rdf:resource="http://purl.org/dc/dcmitype/StillImage" />
        <dc:title />
      </cc:Work>
    </rdf:RDF>
  </metadata>
  <sodipodi:namedview
     inkscape:window-height="1027"
     inkscape:window-width="1856"
     inkscape:pageshadow="2"
     inkscape:pageopacity="0.0"
     borderopacity="1.0"
     bordercolor="#666666"
     pagecolor="#ffffff"
     id="base"
     showgrid="false"
     showguides="true"
     inkscape:guide-bbox="true"
     inkscape:zoom="2"
     inkscape:cx="216.21652"
     inkscape:cy="1044.687"
     inkscape:window-x="64"
     inkscape:window-y="0"
     inkscape:current-layer="svg5496"
     inkscape:window-maximized="1"
     inkscape:snap-global="true">
    <sodipodi:guide
       orientation="horizontal"
       position="-0.34375,205"
       id="guide5596" />
    <sodipodi:guide
       position="187.81641,404.9961"
       orientation="0,1024"
       id="guide3041" />
    <sodipodi:guide
       position="1024,0"
       orientation="-1024,0"
       id="guide3043" />
    <sodipodi:guide
       position="1024,1024"
       orientation="0,-1024"
       id="guide3045" />
    <sodipodi:guide
       position="0,1024"
       orientation="1024,0"
       id="guide3047" />
  </sodipodi:namedview>
  <defs
     id="defs5498" />
  <g
     id="layer1"
     transform="translate(0,24)" />
  <path
     id="path3793"
     style="fill:#000000;fill-opacity:1;stroke:none"
     d="m 50.000023,73.529443 c 0.02462,14.52728 11.038346,17.054824 19.087016,21.166736 6.8849,3.517368 41.967841,18.308631 42.677631,52.362651 0.70979,34.05402 -12.598942,65.64703 -22.577494,85.99362 -9.978556,20.34659 -4.957273,27.98953 6.401033,27.97696 13.753931,-0.0152 31.364371,-7.9992 46.508251,-18.93268 C 157.24033,231.16327 199.92445,195.0239 199.9999,131.61765 200.0753,68.211398 156.37946,19.963039 141.71434,7.909079 134.83408,2.253855 129.54478,6.18e-4 123.52857,0 108.42858,0.0059 104.14015,19.253333 86.7647,36.764711 69.389243,54.276104 49.97541,59.002163 50.000023,73.529443 z"
     inkscape:connector-curvature="0"
     sodipodi:nodetypes="zszzszzscsz" />
</svg>
