<?xml version="1.0" encoding="UTF-8" standalone="no"?>
<!-- Created with Inkscape (http://www.inkscape.org/) -->

<svg
   xmlns:dc="http://purl.org/dc/elements/1.1/"
   xmlns:cc="http://creativecommons.org/ns#"
   xmlns:rdf="http://www.w3.org/1999/02/22-rdf-syntax-ns#"
   xmlns:svg="http://www.w3.org/2000/svg"
   xmlns="http://www.w3.org/2000/svg"
   xmlns:sodipodi="http://sodipodi.sourceforge.net/DTD/sodipodi-0.dtd"
   xmlns:inkscape="http://www.inkscape.org/namespaces/inkscape"
   version="1.0"
   width="1024"
   height="1024"
   id="svg5496"
   sodipodi:version="0.32"
   inkscape:version="0.48.1 r9760"
   sodipodi:docname="s.svg"
   inkscape:output_extension="org.inkscape.output.svg.inkscape">
  <metadata
     id="metadata5594">
    <rdf:RDF>
      <cc:Work
         rdf:about="">
        <dc:format>image/svg+xml</dc:format>
        <dc:type
           rdf:resource="http://purl.org/dc/dcmitype/StillImage" />
        <dc:title />
      </cc:Work>
    </rdf:RDF>
  </metadata>
  <sodipodi:namedview
     inkscape:window-height="1027"
     inkscape:window-width="1856"
     inkscape:pageshadow="2"
     inkscape:pageopacity="0.0"
     borderopacity="1.0"
     bordercolor="#666666"
     pagecolor="#ffffff"
     id="base"
     showgrid="false"
     showguides="true"
     inkscape:guide-bbox="true"
     inkscape:zoom="4"
     inkscape:cx="98.437665"
     inkscape:cy="285.3112"
     inkscape:window-x="64"
     inkscape:window-y="0"
     inkscape:current-layer="svg5496"
     inkscape:window-maximized="1"
     inkscape:snap-global="true">
    <sodipodi:guide
       orientation="horizontal"
       position="280.28718,205.45641"
       id="guide5596" />
    <sodipodi:guide
       position="425.81777,640.9781"
       orientation="0,1024"
       id="guide3838" />
    <sodipodi:guide
       position="275.41809,703.21769"
       orientation="-1024,0"
       id="guide3840" />
    <sodipodi:guide
       position="0,775.97232"
       orientation="0,-1024"
       id="guide3842" />
    <sodipodi:guide
       position="62.597463,452.35525"
       orientation="1024,0"
       id="guide3844" />
    <sodipodi:guide
       position="1024,0"
       orientation="-1024,0"
       id="guide3760" />
    <sodipodi:guide
       position="-104.04297,464.99609"
       orientation="0,-1024"
       id="guide3762" />
    <sodipodi:guide
       position="-167.58431,640.9781"
       orientation="-0.939144,0.34352374"
       id="guide3764" />
    <sodipodi:guide
       position="0,0"
       orientation="0,1024"
       id="guide2991" />
    <sodipodi:guide
       position="1024,0"
       orientation="-1024,0"
       id="guide2993" />
    <sodipodi:guide
       position="1024,1024"
       orientation="0,-1024"
       id="guide2995" />
    <sodipodi:guide
       position="0,1024"
       orientation="1024,0"
       id="guide2997" />
  </sodipodi:namedview>
  <defs
     id="defs5498" />
  <g
     id="layer1"
     transform="translate(0,24)" />
  <path
     style="fill:#000000;fill-opacity:1;stroke:none"
     d="M 5.297149,775.53855 C 20.739723,792.02208 122.46432,819 235.50021,819 c 113.03588,0 186.60576,-21.55874 232.32792,-51.7583 45.72216,-30.19956 65.323,-72.29797 65.74833,-129.64122 0.42533,-57.34325 -27.26218,-100.51755 -68.95918,-130.97392 -41.697,-30.45637 -86.36959,-41.07014 -136.56643,-48.54096 -50.19684,-7.47082 -134.31857,-16.77579 -166.58897,-33.11602 -32.2704,-16.34023 -33.20783,-66.80946 -4.80421,-88.46325 28.40362,-21.65379 82.21349,-23.95122 118.65359,-10.66142 70.87687,25.84897 108.11778,63.52124 142.62783,71.53054 16.14039,3.74596 21.20049,-40.22085 33.97493,-60.36197 15.46393,-24.38156 44.11755,-38.79316 31.83746,-52.21091 C 476.22974,276.584 356.1648,247.92872 223.59012,248.00046 107.29516,248.06336 0,293.11358 0,383.0219 c 0,63.01061 33.065887,117.21992 155.46188,144.12876 85.18791,18.72861 129.20666,23.68002 162.83684,35.17431 43.78198,14.96403 62.12977,47.11151 60.2477,76.10274 -4.74089,73.02845 -85.09216,90.26182 -124.51602,86.67013 C 139.61943,714.6745 101.22977,647.51626 81.640657,649.7929 60.300671,652.27303 58.058975,677.40099 36.502287,713.14468 19.27931,741.70253 -7.8612047,761.49322 5.297149,775.53855 z"
     id="path3756"
     inkscape:connector-curvature="0"
     sodipodi:nodetypes="szzzzzzzsssssssssssss" />
</svg>
