<?xml version="1.0" encoding="UTF-8" standalone="no"?>
<!-- Created with Inkscape (http://www.inkscape.org/) -->

<svg
   xmlns:dc="http://purl.org/dc/elements/1.1/"
   xmlns:cc="http://creativecommons.org/ns#"
   xmlns:rdf="http://www.w3.org/1999/02/22-rdf-syntax-ns#"
   xmlns:svg="http://www.w3.org/2000/svg"
   xmlns="http://www.w3.org/2000/svg"
   xmlns:sodipodi="http://sodipodi.sourceforge.net/DTD/sodipodi-0.dtd"
   xmlns:inkscape="http://www.inkscape.org/namespaces/inkscape"
   version="1.0"
   width="1024"
   height="1024"
   id="svg5496"
   sodipodi:version="0.32"
   inkscape:version="0.48.1 r9760"
   sodipodi:docname="semi-colon.svg"
   inkscape:output_extension="org.inkscape.output.svg.inkscape">
  <metadata
     id="metadata5594">
    <rdf:RDF>
      <cc:Work
         rdf:about="">
        <dc:format>image/svg+xml</dc:format>
        <dc:type
           rdf:resource="http://purl.org/dc/dcmitype/StillImage" />
        <dc:title></dc:title>
      </cc:Work>
    </rdf:RDF>
  </metadata>
  <sodipodi:namedview
     inkscape:window-height="1027"
     inkscape:window-width="1856"
     inkscape:pageshadow="2"
     inkscape:pageopacity="0.0"
     borderopacity="1.0"
     bordercolor="#666666"
     pagecolor="#ffffff"
     id="base"
     showgrid="false"
     showguides="true"
     inkscape:guide-bbox="true"
     inkscape:zoom="0.86346696"
     inkscape:cx="-30.447785"
     inkscape:cy="392.78058"
     inkscape:window-x="64"
     inkscape:window-y="0"
     inkscape:current-layer="svg5496"
     inkscape:window-maximized="1"
     inkscape:snap-global="true">
    <sodipodi:guide
       orientation="horizontal"
       position="-0.34375,205"
       id="guide5596" />
    <sodipodi:guide
       position="187.81641,404.9961"
       orientation="0,1024"
       id="guide3041" />
    <sodipodi:guide
       position="1024,0"
       orientation="-1024,0"
       id="guide3043" />
    <sodipodi:guide
       position="1024,1024"
       orientation="0,-1024"
       id="guide3045" />
    <sodipodi:guide
       position="0,1024"
       orientation="1024,0"
       id="guide3047" />
  </sodipodi:namedview>
  <defs
     id="defs5498" />
  <g
     id="layer1"
     transform="translate(0,24)" />
  <path
     id="path3793-4"
     style="fill:#000000;fill-opacity:1;stroke:none"
     d="m 50.000032,369.00002 c 0.03348,19.7571 26.757887,27.3691 49.999988,49.99998 23.24211,22.63092 40.45896,50 49.99889,50 9.53993,0 15.72989,-5.56515 21.85514,-13.74058 7.48239,-9.9868 14.8682,-23.86869 28.14594,-36.25942 24.1472,-22.53406 49.97824,-29.11294 50,-49.99998 0.0218,-20.88703 -27.74209,-26.25287 -50,-50.00001 -22.25791,-23.74712 -29.46509,-50.0078 -50.00108,-50 -20.53599,0.008 -26.36826,26.18452 -49.99889,50 -23.630632,23.81548 -50.033462,30.24292 -49.999988,50.00001 z"
     inkscape:connector-curvature="0"
     sodipodi:nodetypes="zszsszszsz" />
  <path
     id="path3793-5"
     style="fill:#000000;fill-opacity:1;stroke:none"
     d="m 50.000032,719.00392 c 0.03348,19.7571 15.012159,23.19457 25.958357,28.78678 9.363462,4.78362 57.076291,24.89973 58.041611,71.2132 0.96532,46.31347 -17.13457,89.27998 -30.70541,116.95134 C 89.723741,963.6266 96.552691,974.021 112,974.0039 130.70536,973.9832 154.65557,963.12499 175.25125,948.25547 195.84693,933.38595 253.89738,884.2364 254,798.0039 c 0.10262,-86.2325 -59.32385,-151.85028 -79.26842,-168.24367 -9.35716,-7.6911 -16.55061,-10.75549 -24.73267,-10.75633 -20.53599,0.008 -26.36826,26.18452 -49.99889,50 -23.630632,23.81548 -50.033462,30.24292 -49.999988,50.00002 z"
     inkscape:connector-curvature="0"
     sodipodi:nodetypes="zszzszzscsz" />
</svg>
