<?xml version="1.0" encoding="UTF-8" standalone="no"?>
<!-- Created with Inkscape (http://www.inkscape.org/) -->

<svg
   xmlns:dc="http://purl.org/dc/elements/1.1/"
   xmlns:cc="http://creativecommons.org/ns#"
   xmlns:rdf="http://www.w3.org/1999/02/22-rdf-syntax-ns#"
   xmlns:svg="http://www.w3.org/2000/svg"
   xmlns="http://www.w3.org/2000/svg"
   xmlns:sodipodi="http://sodipodi.sourceforge.net/DTD/sodipodi-0.dtd"
   xmlns:inkscape="http://www.inkscape.org/namespaces/inkscape"
   version="1.0"
   width="1024"
   height="1024"
   id="svg5496"
   sodipodi:version="0.32"
   inkscape:version="0.48.1 r9760"
   sodipodi:docname="tilde.svg"
   inkscape:output_extension="org.inkscape.output.svg.inkscape">
  <metadata
     id="metadata5594">
    <rdf:RDF>
      <cc:Work
         rdf:about="">
        <dc:format>image/svg+xml</dc:format>
        <dc:type
           rdf:resource="http://purl.org/dc/dcmitype/StillImage" />
        <dc:title></dc:title>
      </cc:Work>
    </rdf:RDF>
  </metadata>
  <sodipodi:namedview
     inkscape:window-height="1027"
     inkscape:window-width="1856"
     inkscape:pageshadow="2"
     inkscape:pageopacity="0.0"
     borderopacity="1.0"
     bordercolor="#666666"
     pagecolor="#ffffff"
     id="base"
     showgrid="false"
     showguides="true"
     inkscape:guide-bbox="true"
     inkscape:zoom="0.867"
     inkscape:cx="570.53378"
     inkscape:cy="587.91575"
     inkscape:window-x="64"
     inkscape:window-y="0"
     inkscape:current-layer="svg5496"
     inkscape:window-maximized="1"
     inkscape:snap-global="false">
    <sodipodi:guide
       orientation="0,1"
       position="0,205"
       id="guide5596" />
    <sodipodi:guide
       position="0,0"
       orientation="0,1024"
       id="guide3003" />
    <sodipodi:guide
       position="1024,0"
       orientation="-1024,0"
       id="guide3005" />
    <sodipodi:guide
       position="1024,776"
       orientation="0,1"
       id="guide3007" />
    <sodipodi:guide
       position="0,1024"
       orientation="1024,0"
       id="guide3009" />
  </sodipodi:namedview>
  <defs
     id="defs5498" />
  <g
     id="layer1"
     transform="translate(0,24)" />
  <path
     style="fill:#000000;fill-opacity:1;stroke:none"
     d="m 314.76067,397.37793 c 64.95941,0.46009 93.85148,-8.08696 124.00531,-46.99263 20.43855,-26.37063 25.24202,-84.08847 7.15955,-83.62967 -38.0564,0.96558 -45.58242,59.24683 -100.06489,57.50804 -97.77066,-3.12031 -128.75515,-76.33749 -214.01456,-76.33749 -60.477699,0 -79.402517,9.49655 -101.931432,36.63356 -29.74175654,35.82517 -39.4370085,88.23587 -17.866161,89.56696 26.186039,1.61588 39.30912,-52.09563 91.176523,-52.51935 96.88993,-0.79153 113.84298,75.07866 211.53566,75.77058 z"
     id="path3793"
     inkscape:connector-curvature="0"
     sodipodi:nodetypes="sssssssss" />
</svg>
