<?xml version="1.0" encoding="UTF-8" standalone="no"?>
<!-- Created with Inkscape (http://www.inkscape.org/) -->

<svg
   xmlns:dc="http://purl.org/dc/elements/1.1/"
   xmlns:cc="http://creativecommons.org/ns#"
   xmlns:rdf="http://www.w3.org/1999/02/22-rdf-syntax-ns#"
   xmlns:svg="http://www.w3.org/2000/svg"
   xmlns="http://www.w3.org/2000/svg"
   xmlns:sodipodi="http://sodipodi.sourceforge.net/DTD/sodipodi-0.dtd"
   xmlns:inkscape="http://www.inkscape.org/namespaces/inkscape"
   version="1.0"
   width="1024"
   height="1024"
   id="svg5496"
   sodipodi:version="0.32"
   inkscape:version="0.48.1 r9760"
   sodipodi:docname="V.svg"
   inkscape:output_extension="org.inkscape.output.svg.inkscape">
  <metadata
     id="metadata5594">
    <rdf:RDF>
      <cc:Work
         rdf:about="">
        <dc:format>image/svg+xml</dc:format>
        <dc:type
           rdf:resource="http://purl.org/dc/dcmitype/StillImage" />
        <dc:title />
      </cc:Work>
    </rdf:RDF>
  </metadata>
  <sodipodi:namedview
     inkscape:window-height="1027"
     inkscape:window-width="1856"
     inkscape:pageshadow="2"
     inkscape:pageopacity="0.0"
     borderopacity="1.0"
     bordercolor="#666666"
     pagecolor="#ffffff"
     id="base"
     showgrid="false"
     showguides="true"
     inkscape:guide-bbox="true"
     inkscape:zoom="0.59869295"
     inkscape:cx="793.22215"
     inkscape:cy="730.31693"
     inkscape:window-x="64"
     inkscape:window-y="0"
     inkscape:current-layer="svg5496"
     inkscape:window-maximized="1">
    <sodipodi:guide
       orientation="horizontal"
       position="-0.24793594,205.00388"
       id="guide5596" />
  </sodipodi:namedview>
  <defs
     id="defs5498" />
  <g
     id="layer1"
     transform="translate(0,24)" />
  <path
     style="fill:#000000;fill-opacity:1;stroke:none"
     d="M 13.712175,0.10294 C 4.3891119,0.143265 -2.3069976,8.527411 0.7478086,17.012985 5.8208214,31.104686 20.217076,35.663644 29.304522,55.060583 L 366.08565,773.91194 c 16.00673,34.16599 20.14505,45.08418 30.8724,45.08806 10.72735,0.004 13.73832,-10.63507 30.43222,-45.08806 L 768.9426,69.013901 C 784.6585,36.579328 787.00287,43.914407 802.99434,32.989111 819.66558,21.599398 811.13322,0.298295 794.30585,0.10294 775.0291,-0.12085081 738.26269,3.227975 711.24126,3.221047 684.21983,3.214147 666.14782,1.230276 656.00179,0.10294 c -10.14603,-1.127336 -14.05164,7.230975 -14.05164,13.994993 0,6.764017 9.25838,12.719689 17.10346,17.707191 9.81584,6.240408 31.59663,16.991664 19.2331,39.786958 L 441.49137,508.18431 c -7.07944,13.05275 -8.17459,16.64944 -10.25043,16.68968 -2.07584,0.0402 -3.71754,-3.73056 -8.87197,-15.34152 L 237.4341,92.94522 C 228.3576,72.499351 239.91321,51.279531 262.66296,37.323704 277.76512,28.059287 264.44788,0.06454 248.72172,0.10294 230.54189,0.14733 162.64594,5.3878374 117.4271,5.221047 72.208261,5.0542566 45.817734,-0.035927 13.712175,0.10294 z"
     id="path4335"
     inkscape:connector-curvature="0"
     sodipodi:nodetypes="sssszsssszssssszsssszs" />
</svg>
