<?xml version="1.0" encoding="UTF-8" standalone="no"?>
<!-- Created with Inkscape (http://www.inkscape.org/) -->

<svg
   xmlns:dc="http://purl.org/dc/elements/1.1/"
   xmlns:cc="http://creativecommons.org/ns#"
   xmlns:rdf="http://www.w3.org/1999/02/22-rdf-syntax-ns#"
   xmlns:svg="http://www.w3.org/2000/svg"
   xmlns="http://www.w3.org/2000/svg"
   xmlns:sodipodi="http://sodipodi.sourceforge.net/DTD/sodipodi-0.dtd"
   xmlns:inkscape="http://www.inkscape.org/namespaces/inkscape"
   version="1.0"
   width="1024"
   height="1024"
   id="svg5496"
   sodipodi:version="0.32"
   inkscape:version="0.48.1 r9760"
   sodipodi:docname="w.svg"
   inkscape:output_extension="org.inkscape.output.svg.inkscape">
  <metadata
     id="metadata5594">
    <rdf:RDF>
      <cc:Work
         rdf:about="">
        <dc:format>image/svg+xml</dc:format>
        <dc:type
           rdf:resource="http://purl.org/dc/dcmitype/StillImage" />
        <dc:title />
      </cc:Work>
    </rdf:RDF>
  </metadata>
  <sodipodi:namedview
     inkscape:window-height="1027"
     inkscape:window-width="1856"
     inkscape:pageshadow="2"
     inkscape:pageopacity="0.0"
     borderopacity="1.0"
     bordercolor="#666666"
     pagecolor="#ffffff"
     id="base"
     showgrid="false"
     showguides="true"
     inkscape:guide-bbox="true"
     inkscape:zoom="1.1973859"
     inkscape:cx="617.65523"
     inkscape:cy="524.55193"
     inkscape:window-x="64"
     inkscape:window-y="0"
     inkscape:current-layer="svg5496"
     inkscape:window-maximized="1">
    <sodipodi:guide
       orientation="horizontal"
       position="-0.24793594,205.00388"
       id="guide5596" />
    <sodipodi:guide
       position="447.7,742.43294"
       orientation="-0.89879405,0.43837115"
       id="guide3005" />
    <sodipodi:guide
       position="1024,776"
       orientation="0,1"
       id="guide3007" />
    <sodipodi:guide
       position="447.7,310.62514"
       orientation="1,0"
       id="guide3009" />
    <sodipodi:guide
       position="-57.873126,552.7474"
       orientation="0,1024"
       id="guide3021" />
    <sodipodi:guide
       position="-34.251442,730"
       orientation="0,1"
       id="guide3025" />
    <sodipodi:guide
       position="447.7,742.43294"
       orientation="0.89879405,0.43837115"
       id="guide2989" />
    <sodipodi:guide
       position="1024,0"
       orientation="-1024,0"
       id="guide2991" />
    <sodipodi:guide
       position="605.18206,419.54686"
       orientation="-0.91515559,0.4031008"
       id="guide2993" />
    <sodipodi:guide
       position="290.75326,420.64443"
       orientation="-0.91199346,-0.41020474"
       id="guide2995" />
  </sodipodi:namedview>
  <defs
     id="defs5498" />
  <g
     id="layer1"
     transform="translate(0,24)" />
  <path
     id="path3018"
     style="fill:#000000;fill-opacity:1;stroke:none"
     d="m 596.79319,587.2534 c 3.84596,7.88539 6.62178,7.78686 8.06904,7.81492 1.44726,0.028 4.39088,0.0453 7.99684,-8.04421 L 751.2842,276.4823 c 6.43976,-14.44691 -0.22613,-28.38283 10.70937,-28.41053 28.32947,-0.0718 23.59374,2.04452 55.11994,1.92823 31.52619,-0.11628 46.34299,-2.02505 68.72679,-1.92823 6.4999,0.0281 11.1684,5.87347 9.0386,11.78954 -3.5368,9.82462 -9.5738,13.00309 -15.9095,26.52647 L 644.16841,787.56498 C 633.00866,811.38522 630.12345,818.9973 622.64443,819 c -7.47902,0.003 -9.8071,-7.30513 -21.21709,-31.43502 L 454.88224,477.65091 c -1.58681,-3.35578 -4.71701,-6.39831 -7.18224,-6.39831 -2.46523,0 -5.55434,2.95562 -7.18224,6.39831 L 293.97295,787.56498 C 282.56298,811.69488 280.23488,819.003 272.75586,819 c -7.47902,-0.003 -10.36423,-7.61478 -21.52398,-31.43502 L 16.430869,286.38778 C 10.095178,272.8644 4.0582283,269.68593 0.52136594,259.86131 -1.6084196,253.94524 3.0600524,248.09987 9.560014,248.07177 c 22.38373,-0.0968 37.200562,1.81195 68.726761,1.92823 31.526205,0.11629 26.790475,-2 55.119945,-1.92823 10.9355,0.0277 4.23602,13.97864 10.70937,28.41053 l 139.46,310.91653 c 3.62476,8.08116 5.72514,9.1967 7.1724,9.1687 1.44726,-0.0281 3.69221,-0.77233 7.98421,-9.57225 L 437.74012,301.98784 C 440.08306,297.18411 444.52369,294 447.7,294 c 3.17631,0 7.63857,3.22845 9.95786,7.9837 z"
     inkscape:connector-curvature="0"
     sodipodi:nodetypes="scsssssssscsszsscsssssssscsszss" />
</svg>
