<?xml version="1.0" encoding="UTF-8" standalone="no"?>
<!-- Created with Inkscape (http://www.inkscape.org/) -->

<svg
   xmlns:dc="http://purl.org/dc/elements/1.1/"
   xmlns:cc="http://creativecommons.org/ns#"
   xmlns:rdf="http://www.w3.org/1999/02/22-rdf-syntax-ns#"
   xmlns:svg="http://www.w3.org/2000/svg"
   xmlns="http://www.w3.org/2000/svg"
   xmlns:sodipodi="http://sodipodi.sourceforge.net/DTD/sodipodi-0.dtd"
   xmlns:inkscape="http://www.inkscape.org/namespaces/inkscape"
   version="1.0"
   width="1024"
   height="1024"
   id="svg5496"
   sodipodi:version="0.32"
   inkscape:version="0.48.1 r9760"
   sodipodi:docname="y.svg"
   inkscape:output_extension="org.inkscape.output.svg.inkscape">
  <metadata
     id="metadata5594">
    <rdf:RDF>
      <cc:Work
         rdf:about="">
        <dc:format>image/svg+xml</dc:format>
        <dc:type
           rdf:resource="http://purl.org/dc/dcmitype/StillImage" />
        <dc:title />
      </cc:Work>
    </rdf:RDF>
  </metadata>
  <sodipodi:namedview
     inkscape:window-height="1027"
     inkscape:window-width="1856"
     inkscape:pageshadow="2"
     inkscape:pageopacity="0.0"
     borderopacity="1.0"
     bordercolor="#666666"
     pagecolor="#ffffff"
     id="base"
     showgrid="false"
     showguides="true"
     inkscape:guide-bbox="true"
     inkscape:zoom="0.59869294"
     inkscape:cx="621.74169"
     inkscape:cy="307.34955"
     inkscape:window-x="64"
     inkscape:window-y="0"
     inkscape:current-layer="svg5496"
     inkscape:window-maximized="1">
    <sodipodi:guide
       orientation="horizontal"
       position="-0.24793594,205.00388"
       id="guide5596" />
    <sodipodi:guide
       position="56.692041,138.18685"
       orientation="0.92050485,-0.39073113"
       id="guide3003" />
    <sodipodi:guide
       position="490,776"
       orientation="-0.92050485,0.39073113"
       id="guide3005" />
    <sodipodi:guide
       position="233.84274,-76.834045"
       orientation="-0.92050485,0.39073113"
       id="guide3007" />
    <sodipodi:guide
       position="0,776"
       orientation="0.91354546,0.40673664"
       id="guide3009" />
    <sodipodi:guide
       position="0,0"
       orientation="0,1024"
       id="guide3008" />
    <sodipodi:guide
       position="130,776"
       orientation="0.91354546,0.40673664"
       id="guide3010" />
    <sodipodi:guide
       position="8,776"
       orientation="0,1"
       id="guide3012" />
    <sodipodi:guide
       position="0,1024"
       orientation="1024,0"
       id="guide3014" />
  </sodipodi:namedview>
  <defs
     id="defs5498" />
  <g
     id="layer1"
     transform="translate(0,24)" />
  <path
     style="fill:#000000;fill-opacity:1;stroke:none"
     d="m 8,248 c -5.466984,0 -8,3.41306 -8,8.17042 0,7.74604 10.597162,15.6312 16.671347,29.27404 L 247.48902,803.86945 c 2.51479,5.6483 1.00671,13.07895 -1.85944,19.83117 L 187.817,959.89853 c -3.10025,7.30372 -7.89526,6.38213 -36.45343,-0.86541 -20.64026,-5.23811 -75.546949,-24.02772 -91.56222,-34.45087 -7.573153,-4.9288 -16.339645,-7.60038 -19.466573,-0.2338 -7.637812,17.99356 -4.949629,18.3723 -13.706694,39.00265 -9.657953,22.75271 -13.810224,25.82318 -20.49241,41.5654 -2.8408038,6.6925 -4.8674548,19.4832 13.092026,19.3669 18.210448,-0.118 40.383474,-2.265 63.034561,-2.2834 31.76346,-0.026 142.12086,2.2196 154.32133,2.1455 23.95882,-0.1455 30.37009,-0.014 41.94694,-27.27239 l 303.3816,-714.32842 c 6.73876,-15.86678 10.62267,-16.34785 13.25632,-21.76493 C 597.40466,256.18017 599.42575,248 587.2985,248 c -11.5614,0 -38.36845,2 -51.15272,2 -12.78426,0 -35.29528,-2 -42.78678,-1.92823 -9.51775,0.0912 -7.52841,8.33574 -9.3626,12.68022 L 319.76009,649.76421 c -4.02661,9.53746 -4.13335,8.68482 -5.58061,8.71288 -1.44726,0.028 -2.58305,-2.60483 -6.18546,-10.69598 L 142.49035,276.05378 C 136.05691,261.60405 140.9355,248.0277 130,248 101.67053,247.9282 113.81298,250.11629 82.286775,250 50.760576,249.88372 30.677282,248 8,248 z"
     id="path4335"
     inkscape:connector-curvature="0"
     sodipodi:nodetypes="sssssssssssssssssszssszssszs" />
</svg>
