<?xml version="1.0" encoding="UTF-8" standalone="no"?>
<!-- Created with Inkscape (http://www.inkscape.org/) -->

<svg
   xmlns:dc="http://purl.org/dc/elements/1.1/"
   xmlns:cc="http://creativecommons.org/ns#"
   xmlns:rdf="http://www.w3.org/1999/02/22-rdf-syntax-ns#"
   xmlns:svg="http://www.w3.org/2000/svg"
   xmlns="http://www.w3.org/2000/svg"
   xmlns:sodipodi="http://sodipodi.sourceforge.net/DTD/sodipodi-0.dtd"
   xmlns:inkscape="http://www.inkscape.org/namespaces/inkscape"
   version="1.0"
   width="1024"
   height="1024"
   id="svg5496"
   sodipodi:version="0.32"
   inkscape:version="0.48.1 r9760"
   sodipodi:docname="Z.svg"
   inkscape:output_extension="org.inkscape.output.svg.inkscape">
  <metadata
     id="metadata5594">
    <rdf:RDF>
      <cc:Work
         rdf:about="">
        <dc:format>image/svg+xml</dc:format>
        <dc:type
           rdf:resource="http://purl.org/dc/dcmitype/StillImage" />
        <dc:title />
      </cc:Work>
    </rdf:RDF>
  </metadata>
  <sodipodi:namedview
     inkscape:window-height="1027"
     inkscape:window-width="1856"
     inkscape:pageshadow="2"
     inkscape:pageopacity="0.0"
     borderopacity="1.0"
     bordercolor="#666666"
     pagecolor="#ffffff"
     id="base"
     showgrid="false"
     showguides="true"
     inkscape:guide-bbox="true"
     inkscape:zoom="1"
     inkscape:cx="291.12206"
     inkscape:cy="621.42947"
     inkscape:window-x="64"
     inkscape:window-y="0"
     inkscape:current-layer="svg5496"
     inkscape:window-maximized="1">
    <sodipodi:guide
       orientation="horizontal"
       position="0.1953125,205"
       id="guide5596" />
    <sodipodi:guide
       position="843,485"
       orientation="-0.92050485,0.39073113"
       id="guide3039" />
    <sodipodi:guide
       position="0,776"
       orientation="0,1"
       id="guide3041" />
    <sodipodi:guide
       position="-56,679"
       orientation="-0.92050485,0.39073113"
       id="guide3045" />
  </sodipodi:namedview>
  <defs
     id="defs5498" />
  <g
     id="layer1"
     transform="translate(0,24)" />
  <path
     id="path3789-9"
     style="fill:#000000;fill-opacity:1;stroke:none"
     d="m 258.22989,668.27674 c -15.52686,18.11707 -1.93738,38.49857 27.77398,37.964 l 309.49811,-5.56851 c 57.97153,-1.04303 93.76855,-12.39029 135.65589,-41.75376 34.98304,-24.5235 44.9211,-43.62944 55.06098,-53.07294 11.23081,-10.45953 17.96626,-15.29601 24.53879,-10.97881 5.49007,3.60618 6.32052,10.62492 -5.87505,32.31279 -14.01665,24.92639 -19.79141,39.31551 -39.56752,88.80799 C 742.12901,774.01385 732.33446,819 717.37953,819 707.0982,819 306.97183,815.92881 255.74871,815.92881 204.52558,815.92881 81.008954,819 3.0033051e-4,819 -0.08879514,789.29333 19.658298,778.17188 41.860054,749.08687 L 554.52399,151.49764 c 13.72578,-15.99952 3.33558,-38.86657 -27.13794,-38.47872 l -306.00672,3.89464 c -57.18453,0.7278 -97.30408,15.21871 -139.191411,44.58218 -34.983043,24.5235 -43.506898,42.21523 -53.646773,51.65873 C 17.310332,223.614 10.574887,228.45048 4.0023604,224.13328 1.7027151,222.62275 3.0033051e-4,220.51382 3.0033051e-4,216.97815 3.0033051e-4,211.68393 2.7902365,204.42388 9.8774057,191.82049 23.894061,166.8941 29.668817,152.50498 49.444923,103.0125 72.630985,44.986154 82.425532,0 97.380462,0 107.6618,0 505.71098,3.330837 556.9341,3.330837 c 51.22312,0 174.73976,-3.071188 255.74842,-3.071188 0.0891,29.706664 -19.658,40.828125 -41.85975,69.913125 z"
     inkscape:connector-curvature="0"
     sodipodi:nodetypes="ssssssssssccsssssssssssccs" />
</svg>
